Tutorial with a single-cell dataset • infercna
…
      Tutorial with a single-cell dataset

      Source: vignettes/infercna_tutorial.Rmd
      infercna_tutorial.Rmd

Prepare your data

Set your genome with useGenome()

useGenome('hg19')
#> Genome has been set to hg19
retrieveGenome()
#> Retrieving: hg19
#> # A tibble: 33,575 x 8
#>   symbol start_position end_position chromosome_name arm   band  strand
#>   <chr>           <dbl>        <dbl> <fct>           <fct> <chr>  <int>
#> 1 DDX11…          11869        14412 1               1p    p36.…      1
#> 2 WASH7P          14363        29806 1               1p    p36.…     -1
#> 3 MIR13…          29554        31109 1               1p    p36.…      1
#> 4 FAM13…          34554        36081 1               1p    p36.…     -1
#> # … with 33,571 more rows, and 1 more variable: ensembl_gene_id <chr>
…
obj$data
#> # A tibble: 1,665,660 x 3
#>   Gene   Cell            CNA
#>   <fct>  <fct>         <dbl>
#> 1 WASH7P MGH125-P2-H01     0
#> 2 NOC2L  MGH125-P2-H01     0
#> 3 ISG15  MGH125-P2-H01     0
#> 4 SDF4   MGH125-P2-H01     0
#> # … with 1,665,656 more rows
…
