Set your Genome • infercna
…
You can configure infercna to work with one of the inbuilt genomes. Currently built-in genomes are the two latest versions of H. sapiens, hg38 and hg19 and the latest version of the M. musculus, mm10.

useGenome('mm10')
#> Genome has been set to mm10
currentGenome()
#> Genome: mm10

Fetch genome data with retrieveGenome()

You can also get the genome data (in dataframe form). By default retrieveGenome will return the current genome in use, but you can instead specify a different genome in the function call.

retrieveGenome()
#> Retrieving: mm10
#> # A tibble: 54,513 x 8
#>   symbol start_position end_position chromosome_name arm   band  strand
#>   <chr>           <int>        <int> <fct>           <fct> <chr>  <int>
#> 1 49334…        3073253      3074322 1               1     A1         1
#> 2 Gm262…        3102016      3102125 1               1     A1         1
#> 3 Xkr4          3205901      3671498 1               1     A1        -1
#> 4 Gm189…        3252757      3253236 1               1     A1         1
#> # … with 54,509 more rows, and 1 more variable: ensembl_gene_id <chr>

retrieveGenome(name = 'hg19')
#> Retrieving: hg19
#> # A tibble: 33,575 x 8
#>   symbol start_position end_position chromosome_name arm   band  strand
#>   <chr>           <dbl>        <dbl> <fct>           <fct> <chr>  <int>
#> 1 DDX11…          11869        14412 1               1p    p36.…      1
#> 2 WASH7P          14363        29806 1               1p    p36.…     -1
#> 3 MIR13…          29554        31109 1               1p    p36.…      1
#> 4 FAM13…          34554        36081 1               1p    p36.…     -1
#> # … with 33,571 more rows, and 1 more variable: ensembl_gene_id <chr>

retrieveGenome(name = 'hg38')
#> Retrieving: hg38
#> # A tibble: 37,501 x 8
#>   symbol start_position end_position chromosome_name arm   band  strand
#>   <chr>           <int>        <int> <fct>           <fct> <chr>  <int>
#> 1 DDX11…          11869        14409 1               1p    p36.…      1
#> 2 WASH7P          14404        29570 1               1p    p36.…     -1
#> 3 MIR68…          17369        17436 1               1p    p36.…     -1
#> 4 MIR13…          29554        31109 1               1p    p36.…      1
#> # … with 37,497 more rows, and 1 more variable: ensembl_gene_id <chr>
…
Columns chromosome_name and arm are factor columns (see above)

Note: You can add a genome with as many additional columns as you like. For example, you may want to have end_position and band columns in addition to those listed above.

A dummy example

Data = data.frame(symbol = letters,
                  chromosome_name = factor(LETTERS),
                  arm = factor(LETTERS),
                  start_position = seq(1, length(letters)*2, by = 2),
                  end_position = seq(2, length(letters)*2, by = 2))

tibble::as_tibble(Data)
#> # A tibble: 26 x 5
#>   symbol chromosome_name arm   start_position end_position
#>   <fct>  <fct>           <fct>          <dbl>        <dbl>
#> 1 a      A               A                  1            2
#> 2 b      B               B                  3            4
#> 3 c      C               C                  5            6
#> 4 d      D               D                  7            8
#> # … with 22 more rows
…
